{
  "results": [
    {
      "popularity": 181.955,
      "vote_count": 312,
      "video": false,
      "poster_path": "/33VdppGbeNxICrFUtW2WpGHvfYc.jpg",
      "id": 481848,
      "adult": false,
      "backdrop_path": "/yFRpUmsreYO5Bc0HVBTsJsHIIox.jpg",
      "original_language": "en",
      "original_title": "The Call of the Wild",
      "genre_ids": [
        12,
        18,
        10751
      ],
      "title": "The Call of the Wild",
      "vote_average": 6.7,
      "overview": "Buck is a big-hearted dog whose blissful domestic life is turned upside down when he is suddenly uprooted from his California home and transplanted to the exotic wilds of the Yukon during the Gold Rush of the 1890s. As the newest rookie on a mail delivery dog sled team—and later its leader—Buck experiences the adventure of a lifetime, ultimately finding his true place in the world and becoming his own master.",
      "release_date": "2020-02-19"
    },
    {
      "popularity": 151.56,
      "vote_count": 707,
      "video": false,
      "poster_path": "/f4aul3FyD3jv3v4bul1IrkWZvzq.jpg",
      "id": 508439,
      "adult": false,
      "backdrop_path": "/xFxk4vnirOtUxpOEWgA1MCRfy6J.jpg",
      "original_language": "en",
      "original_title": "Onward",
      "genre_ids": [
        12,
        16,
        35,
        14,
        10751
      ],
      "title": "Onward",
      "vote_average": 7.9,
      "overview": "In a suburban fantasy world, two teenage elf brothers embark on an extraordinary quest to discover if there is still a little magic left out there.",
      "release_date": "2020-02-29"
    },
    {
      "popularity": 136.577,
      "vote_count": 230,
      "video": false,
      "poster_path": "/rmflsMjk4lxx2foNUtd1OKWv6vB.jpg",
      "id": 514847,
      "adult": false,
      "backdrop_path": "/naXUDz0VGK7aaPlEpsuYW8kNVsr.jpg",
      "original_language": "en",
      "original_title": "The Hunt",
      "genre_ids": [
        28,
        27,
        53
      ],
      "title": "The Hunt",
      "vote_average": 6.6,
      "overview": "Twelve strangers wake up in a clearing. They don't know where they are—or how they got there. In the shadow of a dark internet conspiracy theory, ruthless elitists gather at a remote location to hunt humans for sport. But their master plan is about to be derailed when one of the hunted turns the tables on her pursuers.",
      "release_date": "2020-03-11"
    },
    {
      "popularity": 73.549,
      "vote_count": 62,
      "video": false,
      "poster_path": "/myf3qzpeN0JbuFRPwSpJcz7rmAT.jpg",
      "id": 458305,
      "adult": false,
      "backdrop_path": "/vX7hae6S4VEwJU9SaPJNZzy7sKP.jpg",
      "original_language": "en",
      "original_title": "Vivarium",
      "genre_ids": [
        878,
        53
      ],
      "title": "Vivarium",
      "vote_average": 5.6,
      "overview": "A young woman and her fiancé are in search of the perfect starter home. After following a mysterious real estate agent to a new housing development, the couple finds themselves trapped in a maze of identical houses and forced to raise an otherworldly child.",
      "release_date": "2020-03-11"
    },
    {
      "popularity": 61.595,
      "vote_count": 73,
      "video": false,
      "poster_path": "/zwgPO5bamUuajIAEc02q9XZ2qhq.jpg",
      "id": 529485,
      "adult": false,
      "backdrop_path": "/5mubFanEHVFJff4jLQH0uIOThMz.jpg",
      "original_language": "en",
      "original_title": "The Way Back",
      "genre_ids": [
        18
      ],
      "title": "The Way Back",
      "vote_average": 6.5,
      "overview": "A former basketball all-star, who has lost his wife and family foundation in a struggle with addiction attempts to regain his soul and salvation by becoming the coach of a disparate ethnically mixed high school basketball team at his alma mater.",
      "release_date": "2020-03-05"
    },
    {
      "popularity": 61.203,
      "vote_count": 288,
      "video": false,
      "poster_path": "/2kNnf7BwRCEm4bcFkdiE0T4U25s.jpg",
      "id": 457335,
      "adult": false,
      "backdrop_path": "/fssCO59bqU5f0zngeYKex0g1vyb.jpg",
      "original_language": "en",
      "original_title": "Guns Akimbo",
      "genre_ids": [
        28,
        35
      ],
      "title": "Guns Akimbo",
      "vote_average": 6.3,
      "overview": "An ordinary guy suddenly finds himself forced to fight a gladiator-like battle for a dark website that streams the violence for viewers. Miles must fight heavily armed Nix and also save his kidnapped ex-girlfriend.",
      "release_date": "2020-02-27"
    },
    {
      "popularity": 55.546,
      "vote_count": 6,
      "video": false,
      "poster_path": "/7bjTzPQUV2KVI0HdUjf1l8lUoLF.jpg",
      "id": 571265,
      "adult": false,
      "backdrop_path": "/ApywEWLRVaHUY5QX5tUhErBD5m3.jpg",
      "original_language": "ja",
      "original_title": "デジモンアドベンチャー LAST EVOLUTION 絆",
      "genre_ids": [
        28,
        12,
        16,
        53
      ],
      "title": "Digimon Adventure: Last Evolution Kizuna",
      "vote_average": 5.4,
      "overview": "Tai is now a university student, living alone, working hard at school, and working every day, but with his future still undecided. Meanwhile, Matt and others continue to work on Digimon incidents and activities that help people with their partner Digimon. When an unprecedented phenomenon occurs, the DigiDestined discover that when they grow up, their relationship with their partner Digimon will come closer to an end.  As a countdown timer activates on the Digivice, they realize that the more they fight with their partner Digimon, the faster their bond breaks. Will they fight for others and lose their partner? The time to choose and decide is approaching fast. There is a short time before “chosen children” will become adults. This is the last adventure of Tai and Agumon.",
      "release_date": "2020-02-21"
    },
    {
      "popularity": 47.089,
      "vote_count": 108,
      "video": false,
      "poster_path": "/hd5YQjsIPuLmZuvWfdv36apz8tE.jpg",
      "id": 556678,
      "adult": false,
      "backdrop_path": "/5GbkL9DDRzq3A21nR7Gkv6cFGjq.jpg",
      "original_language": "en",
      "original_title": "Emma.",
      "genre_ids": [
        35,
        18,
        10749
      ],
      "title": "Emma.",
      "vote_average": 6.8,
      "overview": "In 1800s England, a well-meaning but selfish young woman meddles in the love lives of her friends.",
      "release_date": "2020-02-13"
    },
    {
      "popularity": 47.05,
      "vote_count": 40,
      "video": false,
      "poster_path": "/h1JzHjFJXNJb3QTCwWmm2UbWEwn.jpg",
      "id": 585244,
      "adult": false,
      "backdrop_path": "/rMkheZl9Zi2auEQp877cOWUTCKs.jpg",
      "original_language": "en",
      "original_title": "I Still Believe",
      "genre_ids": [
        18,
        10402
      ],
      "title": "I Still Believe",
      "vote_average": 7.4,
      "overview": "The true-life story of Christian music star Jeremy Camp and his journey of love and loss that looks to prove there is always hope.",
      "release_date": "2020-03-12"
    },
    {
      "popularity": 42.668,
      "vote_count": 371,
      "video": false,
      "poster_path": "/4YJNp1cquIkX8JxFwkKNEFQ9tgr.jpg",
      "id": 522212,
      "adult": false,
      "backdrop_path": "/4x2AKefQtj8TmzxyRJEEdAayj1V.jpg",
      "original_language": "en",
      "original_title": "Just Mercy",
      "genre_ids": [
        18
      ],
      "title": "Just Mercy",
      "vote_average": 8.1,
      "overview": "The powerful true story of Harvard-educated lawyer Bryan Stevenson, who goes to Alabama to defend the disenfranchised and wrongly condemned — including Walter McMillian, a man sentenced to death despite evidence proving his innocence. Bryan fights tirelessly for Walter with the system stacked against them.",
      "release_date": "2019-12-25"
    },
    {
      "popularity": 34.296,
      "vote_count": 24,
      "video": false,
      "poster_path": "/7W0G3YECgDAfnuiHG91r8WqgIOe.jpg",
      "id": 446893,
      "adult": false,
      "backdrop_path": "/qsxhnirlp7y4Ae9bd11oYJSX59j.jpg",
      "original_language": "en",
      "original_title": "Trolls World Tour",
      "genre_ids": [
        12,
        16,
        35,
        14,
        10402,
        10751
      ],
      "title": "Trolls World Tour",
      "vote_average": 7.9,
      "overview": "Queen Poppy and Branch make a surprising discovery — there are other Troll worlds beyond their own, and their distinct differences create big clashes between these various tribes. When a mysterious threat puts all of the Trolls across the land in danger, Poppy, Branch, and their band of friends must embark on an epic quest to create harmony among the feuding Trolls to unite them against certain doom.",
      "release_date": "2020-03-12"
    },
    {
      "popularity": 33.819,
      "vote_count": 174,
      "video": false,
      "poster_path": "/8ZMrZGGW65ePWIgRn1260nA1uUm.jpg",
      "id": 539537,
      "adult": false,
      "backdrop_path": "/dzfiE2VHY362dGI62XfZ2iI87CT.jpg",
      "original_language": "en",
      "original_title": "Fantasy Island",
      "genre_ids": [
        14,
        27,
        878
      ],
      "title": "Fantasy Island",
      "vote_average": 5,
      "overview": "A group of contest winners arrive at an island hotel to live out their dreams, only to find themselves trapped in nightmare scenarios.",
      "release_date": "2020-02-12"
    },
    {
      "popularity": 29.59,
      "vote_count": 361,
      "video": false,
      "poster_path": "/hJ6YEbrjFvToa5c7IiUqILoB6Je.jpg",
      "id": 552178,
      "adult": false,
      "backdrop_path": "/4ZSlTfkHtgTTupCaLbseXQQzZha.jpg",
      "original_language": "en",
      "original_title": "Dark Waters",
      "genre_ids": [
        18,
        53
      ],
      "title": "Dark Waters",
      "vote_average": 7.4,
      "overview": "A tenacious attorney uncovers a dark secret that connects a growing number of unexplained deaths due to one of the world's largest corporations. In the process, he risks everything — his future, his family, and his own life — to expose the truth.",
      "release_date": "2019-11-22"
    },
    {
      "popularity": 28.725,
      "vote_count": 128,
      "video": false,
      "poster_path": "/cuuI1UVwnoyDoN691Z0bYZrOezx.jpg",
      "id": 555974,
      "adult": false,
      "backdrop_path": "/rpGYHowXtjw37UxdwO1ZcK5E8IN.jpg",
      "original_language": "en",
      "original_title": "Brahms: The Boy II",
      "genre_ids": [
        27,
        9648,
        53
      ],
      "title": "Brahms: The Boy II",
      "vote_average": 6.2,
      "overview": "After a family moves into the Heelshire Mansion, their young son soon makes friends with a life-like doll called Brahms.",
      "release_date": "2020-02-20"
    },
    {
      "popularity": 24.84,
      "vote_count": 359,
      "video": false,
      "poster_path": "/p9vCAVhDK375XyobVcKqzqzsUHE.jpg",
      "id": 501907,
      "adult": false,
      "backdrop_path": "/w0tJot6O0UtLVBRIPAdg3dQ2oNO.jpg",
      "original_language": "en",
      "original_title": "A Beautiful Day in the Neighborhood",
      "genre_ids": [
        18
      ],
      "title": "A Beautiful Day in the Neighborhood",
      "vote_average": 7.3,
      "overview": "An award-winning cynical journalist, Lloyd Vogel, begrudgingly accepts an assignment to write an Esquire profile piece on the beloved television icon Fred Rogers. After his encounter with Rogers, Vogel's perspective on life is transformed.",
      "release_date": "2019-09-07"
    },
    {
      "popularity": 21.362,
      "vote_count": 21,
      "video": false,
      "poster_path": "/n2C6jRK9PtPIs99RQhKtqGlsnsO.jpg",
      "id": 592834,
      "adult": false,
      "backdrop_path": "/xx3x35BS7xL6IsG3tU2qrxsHwiX.jpg",
      "original_language": "en",
      "original_title": "My Spy",
      "genre_ids": [
        28,
        35,
        10751
      ],
      "title": "My Spy",
      "vote_average": 7,
      "overview": "A hardened CIA operative finds himself at the mercy of a precocious 9-year-old girl, having been sent undercover to surveil her family.",
      "release_date": "2020-02-07"
    },
    {
      "popularity": 19.93,
      "vote_count": 132,
      "video": false,
      "poster_path": "/pbGveUC8mk0QRkdXpERPLbMFnrg.jpg",
      "id": 466081,
      "adult": false,
      "backdrop_path": "/98sIdYdvnh68Va1JLjcyAuFGZO5.jpg",
      "original_language": "en",
      "original_title": "The Informer",
      "genre_ids": [
        80,
        18,
        53
      ],
      "title": "The Informer",
      "vote_average": 6.4,
      "overview": "In New York, former convict Pete Koslow, related to the Polish mafia, must deal with both Klimek the General, his ruthless boss, and the twisted ambitions of two federal agents, as he tries to survive and protect the lives of his loved ones…",
      "release_date": "2019-08-30"
    },
    {
      "popularity": 19.755,
      "vote_count": 0,
      "video": false,
      "poster_path": "/wRMNOaEpFftdQD73G0TaKXFJP3.jpg",
      "id": 671318,
      "adult": false,
      "backdrop_path": "/lXc3X4GmeedECiaqIhZNbZf7vDA.jpg",
      "original_language": "es",
      "original_title": "¿Y cómo es él?",
      "genre_ids": [],
      "title": "And What Is He Like?",
      "vote_average": 0,
      "overview": "Thomas is a meek man on the verge of a nervous breakdown. Despite his situation he decides to fake a work trip to go to Vallarta to confront Jero, a taxi driver who is sleeping with his wife.",
      "release_date": "2020-04-03"
    },
    {
      "popularity": 16.998,
      "id": 11423,
      "video": false,
      "vote_count": 1389,
      "vote_average": 8.1,
      "title": "Memories of Murder",
      "release_date": "2003-05-02",
      "original_language": "ko",
      "original_title": "살인의 추억",
      "genre_ids": [
        80,
        18,
        53
      ],
      "backdrop_path": "/uUYCUbgI5VxsUflTMI4Y9L2Y6vb.jpg",
      "adult": false,
      "overview": "1986 Gyunggi Province. The body of a young woman is found brutally raped and murdered. Two months later, a series of rapes and murders commences under similar circumstances. And in a country that had never known such crimes, the dark whispers about a serial murderer grow louder. A special task force is set up in the area, with two local detectives Park Doo-Man and Jo Young-Goo joined by a detective from Seoul who requested to be assigned to the case.",
      "poster_path": "/gawnVe9cFowdoDLo9Pok12NTw39.jpg"
    },
    {
      "popularity": 16.661,
      "vote_count": 170,
      "video": false,
      "poster_path": "/rsUs58bDqpJJxZSOebZOMN9gzw2.jpg",
      "id": 506528,
      "adult": false,
      "backdrop_path": "/4p8w4sptTXkNbmiBtVJpSXoSWGY.jpg",
      "original_language": "en",
      "original_title": "Harriet",
      "genre_ids": [
        18,
        36
      ],
      "title": "Harriet",
      "vote_average": 6.8,
      "overview": "The extraordinary tale of Harriet Tubman's escape from slavery and transformation into one of America's greatest heroes. Her courage, ingenuity and tenacity freed hundreds of slaves and changed the course of history.",
      "release_date": "2019-11-01"
    }
  ],
  "page": 1,
  "total_results": 228,
  "dates": {
    "maximum": "2020-04-29",
    "minimum": "2020-04-08"
  },
  "total_pages": 12
}