{
  "results": [
    {
      "popularity": 432.581,
      "vote_count": 1926,
      "video": false,
      "poster_path": "/y95lQLnuNKdPAzw9F9Ab8kJ80c3.jpg",
      "id": 38700,
      "adult": false,
      "backdrop_path": "/upUy2QhMZEmtypPW3PdieKLAHxh.jpg",
      "original_language": "en",
      "original_title": "Bad Boys for Life",
      "genre_ids": [
        28,
        80,
        53
      ],
      "title": "Bad Boys for Life",
      "vote_average": 6.8,
      "overview": "Marcus and Mike are forced to confront new threats, career changes, and midlife crises as they join the newly created elite team AMMO of the Miami police department to take down the ruthless Armando Armas, the vicious leader of a Miami drug cartel.",
      "release_date": "2020-01-15"
    },
    {
      "popularity": 368.26,
      "vote_count": 1115,
      "video": false,
      "poster_path": "/8WUVHemHFH2ZIP6NWkwlHWsyrEL.jpg",
      "id": 338762,
      "adult": false,
      "backdrop_path": "/ocUrMYbdjknu2TwzMHKT9PBBQRw.jpg",
      "original_language": "en",
      "original_title": "Bloodshot",
      "genre_ids": [
        28,
        878
      ],
      "title": "Bloodshot",
      "vote_average": 7.2,
      "overview": "After he and his wife are murdered, marine Ray Garrison is resurrected by a team of scientists. Enhanced with nanotechnology, he becomes a superhuman, biotech killing machine—'Bloodshot'. As Ray first trains with fellow super-soldiers, he cannot recall anything from his former life. But when his memories flood back and he remembers the man that killed both him and his wife, he breaks out of the facility to get revenge, only to discover that there's more to the conspiracy than he thought.",
      "release_date": "2020-02-20"
    },
    {
      "popularity": 218.421,
      "vote_count": 1499,
      "video": false,
      "poster_path": "/8ZX18L5m6rH5viSYpRnTSbb9eXh.jpg",
      "id": 619264,
      "adult": false,
      "backdrop_path": "/3tkDMNfM2YuIAJlvGO6rfIzAnfG.jpg",
      "original_language": "es",
      "original_title": "El hoyo",
      "genre_ids": [
        18,
        878
      ],
      "title": "The Platform",
      "vote_average": 7.2,
      "overview": "A mysterious place, an indescribable prison, a deep hole. An unknown number of levels. Two inmates living on each level. A descending platform containing food for all of them. An inhuman fight for survival, but also an opportunity for solidarity…",
      "release_date": "2019-11-08"
    },
    {
      "popularity": 207.817,
      "vote_count": 1819,
      "video": false,
      "poster_path": "/aQvJ5WPzZgYVDrxLX4R6cLJCEaQ.jpg",
      "id": 454626,
      "adult": false,
      "backdrop_path": "/stmYfCUGd8Iy6kAMBr6AmWqx8Bq.jpg",
      "original_language": "en",
      "original_title": "Sonic the Hedgehog",
      "genre_ids": [
        28,
        16,
        35,
        878,
        10751
      ],
      "title": "Sonic the Hedgehog",
      "vote_average": 7.4,
      "overview": "Based on the global blockbuster videogame franchise from Sega, Sonic the Hedgehog tells the story of the world’s speediest hedgehog as he embraces his new home on Earth. In this live-action adventure comedy, Sonic and his new best friend team up to defend the planet from the evil genius Dr. Robotnik and his plans for world domination.",
      "release_date": "2020-02-12"
    },
    {
      "popularity": 181.955,
      "vote_count": 312,
      "video": false,
      "poster_path": "/33VdppGbeNxICrFUtW2WpGHvfYc.jpg",
      "id": 481848,
      "adult": false,
      "backdrop_path": "/yFRpUmsreYO5Bc0HVBTsJsHIIox.jpg",
      "original_language": "en",
      "original_title": "The Call of the Wild",
      "genre_ids": [
        12,
        18,
        10751
      ],
      "title": "The Call of the Wild",
      "vote_average": 6.7,
      "overview": "Buck is a big-hearted dog whose blissful domestic life is turned upside down when he is suddenly uprooted from his California home and transplanted to the exotic wilds of the Yukon during the Gold Rush of the 1890s. As the newest rookie on a mail delivery dog sled team—and later its leader—Buck experiences the adventure of a lifetime, ultimately finding his true place in the world and becoming his own master.",
      "release_date": "2020-02-19"
    },
    {
      "popularity": 161.446,
      "vote_count": 1049,
      "video": false,
      "poster_path": "/4U7hpTK0XTQBKT5X60bKmJd05ha.jpg",
      "id": 570670,
      "adult": false,
      "backdrop_path": "/uZMZyvarQuXLRqf3xdpdMqzdtjb.jpg",
      "original_language": "en",
      "original_title": "The Invisible Man",
      "genre_ids": [
        27,
        878,
        53
      ],
      "title": "The Invisible Man",
      "vote_average": 7.1,
      "overview": "When Cecilia's abusive ex takes his own life and leaves her his fortune, she suspects his death was a hoax. As a series of coincidences turn lethal, Cecilia works to prove that she is being hunted by someone nobody can see.",
      "release_date": "2020-02-26"
    },
    {
      "popularity": 151.56,
      "vote_count": 707,
      "video": false,
      "poster_path": "/f4aul3FyD3jv3v4bul1IrkWZvzq.jpg",
      "id": 508439,
      "adult": false,
      "backdrop_path": "/xFxk4vnirOtUxpOEWgA1MCRfy6J.jpg",
      "original_language": "en",
      "original_title": "Onward",
      "genre_ids": [
        12,
        16,
        35,
        14,
        10751
      ],
      "title": "Onward",
      "vote_average": 7.9,
      "overview": "In a suburban fantasy world, two teenage elf brothers embark on an extraordinary quest to discover if there is still a little magic left out there.",
      "release_date": "2020-02-29"
    },
    {
      "popularity": 139.275,
      "vote_count": 374,
      "video": false,
      "poster_path": "/jlHL2BH176JApGiLnNQLQgdjMFd.jpg",
      "id": 443791,
      "adult": false,
      "backdrop_path": "/fYPiQewg7ogbzro2XcCTACSB2KC.jpg",
      "original_language": "en",
      "original_title": "Underwater",
      "genre_ids": [
        28,
        27,
        878,
        53
      ],
      "title": "Underwater",
      "vote_average": 6.2,
      "overview": "After an earthquake destroys their underwater station, six researchers must navigate two miles along the dangerous, unknown depths of the ocean floor to make it to safety in a race against time.",
      "release_date": "2020-01-08"
    },
    {
      "popularity": 136.577,
      "vote_count": 230,
      "video": false,
      "poster_path": "/rmflsMjk4lxx2foNUtd1OKWv6vB.jpg",
      "id": 514847,
      "adult": false,
      "backdrop_path": "/naXUDz0VGK7aaPlEpsuYW8kNVsr.jpg",
      "original_language": "en",
      "original_title": "The Hunt",
      "genre_ids": [
        28,
        27,
        53
      ],
      "title": "The Hunt",
      "vote_average": 6.6,
      "overview": "Twelve strangers wake up in a clearing. They don't know where they are—or how they got there. In the shadow of a dark internet conspiracy theory, ruthless elitists gather at a remote location to hunt humans for sport. But their master plan is about to be derailed when one of the hunted turns the tables on her pursuers.",
      "release_date": "2020-03-11"
    },
    {
      "popularity": 114.284,
      "vote_count": 623,
      "video": false,
      "poster_path": "/jtrhTYB7xSrJxR1vusu99nvnZ1g.jpg",
      "id": 522627,
      "adult": false,
      "backdrop_path": "/aOoKjLoZWia4Uy5nbumrefdJPV6.jpg",
      "original_language": "en",
      "original_title": "The Gentlemen",
      "genre_ids": [
        28,
        35,
        80
      ],
      "title": "The Gentlemen",
      "vote_average": 7.9,
      "overview": "American expat Mickey Pearson has built a highly profitable marijuana empire in London. When word gets out that he’s looking to cash out of the business forever it triggers plots, schemes, bribery and blackmail in an attempt to steal his domain out from under him.",
      "release_date": "2019-12-16"
    },
    {
      "popularity": 108.013,
      "vote_count": 980,
      "video": false,
      "poster_path": "/xnjvwfDulnOCy8qtYX0iqydmMhk.jpg",
      "id": 448119,
      "adult": false,
      "backdrop_path": "/xcUf6yIheo78btFqihlRLftdR3M.jpg",
      "original_language": "en",
      "original_title": "Dolittle",
      "genre_ids": [
        12,
        35,
        14,
        10751
      ],
      "title": "Dolittle",
      "vote_average": 6.8,
      "overview": "After losing his wife seven years earlier, the eccentric Dr. John Dolittle, famed doctor and veterinarian of Queen Victoria’s England, hermits himself away behind the high walls of Dolittle Manor with only his menagerie of exotic animals for company. But when the young queen falls gravely ill, a reluctant Dolittle is forced to set sail on an epic adventure to a mythical island in search of a cure, regaining his wit and courage as he crosses old adversaries and discovers wondrous creatures.",
      "release_date": "2020-01-01"
    },
    {
      "popularity": 100.286,
      "vote_count": 5856,
      "video": false,
      "poster_path": "/7IiTTgloJzvGI1TAYymCfbfl3vT.jpg",
      "id": 496243,
      "adult": false,
      "backdrop_path": "/TU9NIjwzjoKPwQHoHshkFcQUCG.jpg",
      "original_language": "ko",
      "original_title": "기생충",
      "genre_ids": [
        35,
        18,
        53
      ],
      "title": "Parasite",
      "vote_average": 8.5,
      "overview": "All unemployed, Ki-taek's family takes peculiar interest in the wealthy and glamorous Parks for their livelihood until they get entangled in an unexpected incident.",
      "release_date": "2019-05-30"
    },
    {
      "popularity": 95.309,
      "vote_count": 3856,
      "video": false,
      "poster_path": "/iZf0KyrE25z1sage4SYFLCCrMi9.jpg",
      "id": 530915,
      "adult": false,
      "backdrop_path": "/2lBOQK06tltt8SQaswgb8d657Mv.jpg",
      "original_language": "en",
      "original_title": "1917",
      "genre_ids": [
        28,
        18,
        53,
        10752
      ],
      "title": "1917",
      "vote_average": 7.9,
      "overview": "At the height of the First World War, two young British soldiers must cross enemy territory and deliver a message that will stop a deadly attack on hundreds of soldiers.",
      "release_date": "2019-12-25"
    },
    {
      "popularity": 84.21,
      "vote_count": 2,
      "video": false,
      "poster_path": "/79kQIrL36dIoE4uzHyYPqwBvraN.jpg",
      "id": 643560,
      "adult": false,
      "backdrop_path": "/cZOED0ioodG7turLqLwnIlBQD8W.jpg",
      "original_language": "en",
      "original_title": "Maddy",
      "genre_ids": [
        99
      ],
      "title": "Maddy",
      "vote_average": 5.5,
      "overview": "Madeline Stuart is a fashion celebrity who has walked the runway at the New York Fashion Week, has 700 000+ followers on Facebook and is covered by international media world wide. This documentary follows Madeline on her journey to becoming the world's first professional supermodel with Down syndrome, challenging our perception of identity, beauty and disability.",
      "release_date": "2020-03-20"
    },
    {
      "popularity": 78.876,
      "vote_count": 1596,
      "video": false,
      "poster_path": "/yGtgYTdK08vFl6uXlMZ8wXGt6xN.jpg",
      "id": 331482,
      "adult": false,
      "backdrop_path": "/3uTxPIdVEXxHpsHOHdJC24QebBV.jpg",
      "original_language": "en",
      "original_title": "Little Women",
      "genre_ids": [
        18,
        10749
      ],
      "title": "Little Women",
      "vote_average": 8,
      "overview": "Four sisters come of age in America in the aftermath of the Civil War.",
      "release_date": "2019-12-25"
    },
    {
      "popularity": 77.782,
      "vote_count": 7,
      "video": false,
      "poster_path": "/mew5d3ZzFfVxFyPZ8ydJb18UOpr.jpg",
      "id": 625985,
      "adult": false,
      "backdrop_path": "/j4B8G5yKRnTO655uvpQBXt4Ok08.jpg",
      "original_language": "ja",
      "original_title": "仮面ライダージオウNEXT TIME：ゲイツ、マジェスティ",
      "genre_ids": [
        28,
        12,
        878
      ],
      "title": "Kamen Rider Zi-O NEXT TIME: Geiz, Majesty",
      "vote_average": 6.9,
      "overview": "Geiz, Majesty is the first installment of the Kamen Rider Zi-O NEXT TIME series of V-Cinema films for Kamen Rider Zi-O. It focuses on the character Geiz Myokoin.",
      "release_date": "2020-02-28"
    },
    {
      "popularity": 77.666,
      "vote_count": 56,
      "video": false,
      "poster_path": "/8GGS0jkFFCnmdStvZED6NL6V7gd.jpg",
      "id": 502425,
      "adult": false,
      "backdrop_path": "/kolkVKNZSjhZGHwcrFU36Watpke.jpg",
      "original_language": "en",
      "original_title": "Escape from Pretoria",
      "genre_ids": [
        9648,
        53
      ],
      "title": "Escape from Pretoria",
      "vote_average": 6.7,
      "overview": "Two white South Africans, imprisoned for working on behalf of the ANC, are determined to escape from Pretoria's notorious white man's 'Robben Island' Prison.",
      "release_date": "2020-03-06"
    },
    {
      "popularity": 73.549,
      "vote_count": 62,
      "video": false,
      "poster_path": "/myf3qzpeN0JbuFRPwSpJcz7rmAT.jpg",
      "id": 458305,
      "adult": false,
      "backdrop_path": "/vX7hae6S4VEwJU9SaPJNZzy7sKP.jpg",
      "original_language": "en",
      "original_title": "Vivarium",
      "genre_ids": [
        878,
        53
      ],
      "title": "Vivarium",
      "vote_average": 5.6,
      "overview": "A young woman and her fiancé are in search of the perfect starter home. After following a mysterious real estate agent to a new housing development, the couple finds themselves trapped in a maze of identical houses and forced to raise an otherworldly child.",
      "release_date": "2020-03-11"
    },
    {
      "popularity": 72.65,
      "vote_count": 0,
      "video": false,
      "poster_path": "/uksxhYz0Xc7c5AIjoU205XXEVk8.jpg",
      "id": 677115,
      "adult": false,
      "backdrop_path": null,
      "original_language": "ko",
      "original_title": "비뇨기과 여의사들 2",
      "genre_ids": [],
      "title": "Female Urologists 2",
      "vote_average": 0,
      "overview": "Coming Soon",
      "release_date": "2020-02-20"
    },
    {
      "popularity": 65.859,
      "vote_count": 182,
      "video": false,
      "poster_path": "/vHqpFuguBugZZfXIyjsb4tOAXve.jpg",
      "id": 668195,
      "adult": false,
      "backdrop_path": "/jbIDQPQ0XEtIV2nGXUQunhxWjst.jpg",
      "original_language": "it",
      "original_title": "Ultras",
      "genre_ids": [
        18
      ],
      "title": "Ultras",
      "vote_average": 6.4,
      "overview": "An aging soccer fanatic faces down the reality of his past while struggling to give himself and a young follower very different futures.",
      "release_date": "2020-03-09"
    }
  ],
  "page": 1,
  "total_results": 1070,
  "dates": {
    "maximum": "2020-04-07",
    "minimum": "2020-02-19"
  },
  "total_pages": 54
}